<svg width="24" height="24" viewBox="0 0 24 24" fill="none" xmlns="http://www.w3.org/2000/svg">
<path d="M20 11C20.5523 11 21 11.4477 21 12C21 12.5523 20.5523 13 20 13L6.23032 13L8.82469 15.9187C9.14575 16.2799 9.11321 16.8329 8.75203 17.154C8.39084 17.475 7.83778 17.4425 7.51673 17.0813L3 12L7.51673 6.91868C7.83778 6.5575 8.39084 6.52497 8.75203 6.84602C9.11321 7.16707 9.14575 7.72014 8.82469 8.08132L6.2303 11L20 11Z" fill="#4E4E4E"/>
</svg>
