<svg width="24" height="24" viewBox="0 0 24 24" fill="none" xmlns="http://www.w3.org/2000/svg">
<path fill-rule="evenodd" clip-rule="evenodd" d="M5.29289 9.2929C5.68342 8.90237 6.31658 8.90237 6.70711 9.2929L12 14.5858L17.2929 9.29289C17.6834 8.90237 18.3166 8.90237 18.7071 9.29289C19.0976 9.68342 19.0976 10.3166 18.7071 10.7071L12 17.4142L5.29289 10.7071C4.90237 10.3166 4.90237 9.68342 5.29289 9.2929Z" fill="#4E4E4E"/>
</svg>
