<svg width="24" height="24" viewBox="0 0 24 24" fill="none" xmlns="http://www.w3.org/2000/svg">
<path fill-rule="evenodd" clip-rule="evenodd" d="M14.707 5.29289C15.0975 5.68342 15.0975 6.31658 14.707 6.70711L9.41412 12L14.707 17.2929C15.0975 17.6834 15.0975 18.3166 14.707 18.7071C14.3165 19.0976 13.6833 19.0976 13.2928 18.7071L6.58569 12L13.2928 5.29289C13.6833 4.90237 14.3165 4.90237 14.707 5.29289Z" fill="#4E4E4E"/>
</svg>
