<svg width="24" height="24" viewBox="0 0 24 24" fill="none" xmlns="http://www.w3.org/2000/svg">
<path fill-rule="evenodd" clip-rule="evenodd" d="M9.29286 5.29289C8.90234 5.68342 8.90234 6.31658 9.29286 6.70711L14.5858 12L9.29286 17.2929C8.90234 17.6834 8.90234 18.3166 9.29286 18.7071C9.68339 19.0976 10.3166 19.0976 10.7071 18.7071L17.4142 12L10.7071 5.29289C10.3166 4.90237 9.68339 4.90237 9.29286 5.29289Z" fill="#4E4E4E"/>
</svg>
