<svg width="24" height="24" viewBox="0 0 24 24" fill="none" xmlns="http://www.w3.org/2000/svg">
<path fill-rule="evenodd" clip-rule="evenodd" d="M12 22.5C12 22.5 20 16 20 10C20 5.58172 16.4183 2 12 2C7.58172 2 4 5.58172 4 10C4 16 12 22.5 12 22.5ZM12 13C13.6569 13 15 11.6569 15 10C15 8.34315 13.6569 7 12 7C10.3431 7 9 8.34315 9 10C9 11.6569 10.3431 13 12 13Z" fill="#4E4E4E"/>
</svg>
